\relax 
\providecommand\hyper@newdestlabel[2]{}
\providecommand\HyperFirstAtBeginDocument{\AtBeginDocument}
\HyperFirstAtBeginDocument{\ifx\hyper@anchor\@undefined
\global\let\oldcontentsline\contentsline
\gdef\contentsline#1#2#3#4{\oldcontentsline{#1}{#2}{#3}}
\global\let\oldnewlabel\newlabel
\gdef\newlabel#1#2{\newlabelxx{#1}#2}
\gdef\newlabelxx#1#2#3#4#5#6{\oldnewlabel{#1}{{#2}{#3}}}
\AtEndDocument{\ifx\hyper@anchor\@undefined
\let\contentsline\oldcontentsline
\let\newlabel\oldnewlabel
\fi}
\fi}
\global\let\hyper@last\relax 
\gdef\HyperFirstAtBeginDocument#1{#1}
\providecommand\HyField@AuxAddToFields[1]{}
\providecommand\HyField@AuxAddToCoFields[2]{}
\@writefile{nav}{\headcommand {\slideentry {0}{0}{1}{1/1}{}{0}}}
\@writefile{nav}{\headcommand {\beamer@framepages {1}{1}}}
\@writefile{nav}{\headcommand {\slideentry {0}{0}{2}{2/2}{}{0}}}
\@writefile{nav}{\headcommand {\beamer@framepages {2}{2}}}
\@writefile{toc}{\beamer@sectionintoc {1}{Introduction}{3}{0}{1}}
\@writefile{nav}{\headcommand {\beamer@sectionpages {1}{2}}}
\@writefile{nav}{\headcommand {\beamer@subsectionpages {1}{2}}}
\@writefile{nav}{\headcommand {\sectionentry {1}{Introduction}{3}{Introduction}{0}}}
\@writefile{nav}{\headcommand {\slideentry {1}{0}{1}{3/3}{}{0}}}
\@writefile{nav}{\headcommand {\beamer@framepages {3}{3}}}
\@writefile{toc}{\beamer@subsectionintoc {1}{1}{Motivation}{4}{0}{1}}
\@writefile{nav}{\headcommand {\beamer@subsectionpages {3}{3}}}
\@writefile{nav}{\headcommand {\beamer@subsectionentry {0}{1}{1}{4}{Motivation}}}
\@writefile{nav}{\headcommand {\slideentry {1}{1}{1}{4/4}{Motivation}{0}}}
\@writefile{nav}{\headcommand {\beamer@framepages {4}{4}}}
\@writefile{nav}{\headcommand {\slideentry {1}{1}{2}{5/5}{Motivation}{0}}}
\@writefile{nav}{\headcommand {\beamer@framepages {5}{5}}}
\@writefile{toc}{\beamer@subsectionintoc {1}{2}{Model-based inference}{6}{0}{1}}
\@writefile{nav}{\headcommand {\beamer@subsectionpages {4}{5}}}
\@writefile{nav}{\headcommand {\beamer@subsectionentry {0}{1}{2}{6}{Model-based inference}}}
\@writefile{nav}{\headcommand {\slideentry {1}{2}{1}{6/6}{Model-based inference}{0}}}
\@writefile{nav}{\headcommand {\beamer@framepages {6}{6}}}
\@writefile{nav}{\headcommand {\slideentry {1}{2}{2}{7/7}{Model-based inference}{0}}}
\@writefile{nav}{\headcommand {\beamer@framepages {7}{7}}}
\@writefile{toc}{\beamer@subsectionintoc {1}{3}{Inference}{8}{0}{1}}
\@writefile{nav}{\headcommand {\beamer@subsectionpages {6}{7}}}
\@writefile{nav}{\headcommand {\beamer@subsectionentry {0}{1}{3}{8}{Inference}}}
\@writefile{nav}{\headcommand {\slideentry {1}{3}{1}{8/8}{Inference}{0}}}
\@writefile{nav}{\headcommand {\beamer@framepages {8}{8}}}
\@writefile{nav}{\headcommand {\slideentry {1}{3}{2}{9/9}{Inference}{0}}}
\@writefile{nav}{\headcommand {\beamer@framepages {9}{9}}}
\@writefile{nav}{\headcommand {\slideentry {1}{3}{3}{10/10}{Inference}{0}}}
\@writefile{nav}{\headcommand {\beamer@framepages {10}{10}}}
\@writefile{toc}{\beamer@sectionintoc {2}{Likelihood function}{11}{0}{2}}
\@writefile{nav}{\headcommand {\beamer@sectionpages {3}{10}}}
\@writefile{nav}{\headcommand {\beamer@subsectionpages {8}{10}}}
\@writefile{nav}{\headcommand {\sectionentry {2}{Likelihood function}{11}{Likelihood function}{0}}}
\@writefile{nav}{\headcommand {\slideentry {2}{0}{1}{11/11}{}{0}}}
\@writefile{nav}{\headcommand {\beamer@framepages {11}{11}}}
\@writefile{nav}{\headcommand {\slideentry {2}{0}{2}{12/12}{}{0}}}
\@writefile{nav}{\headcommand {\beamer@framepages {12}{12}}}
\@writefile{nav}{\headcommand {\slideentry {2}{0}{3}{13/13}{}{0}}}
\@writefile{nav}{\headcommand {\beamer@framepages {13}{13}}}
\@writefile{nav}{\headcommand {\slideentry {2}{0}{4}{14/14}{}{0}}}
\@writefile{nav}{\headcommand {\beamer@framepages {14}{14}}}
\@writefile{nav}{\headcommand {\slideentry {2}{0}{5}{15/15}{}{0}}}
\@writefile{nav}{\headcommand {\beamer@framepages {15}{15}}}
\@writefile{nav}{\headcommand {\slideentry {2}{0}{6}{16/16}{}{0}}}
\@writefile{nav}{\headcommand {\beamer@framepages {16}{16}}}
\@writefile{nav}{\headcommand {\slideentry {2}{0}{7}{17/17}{}{0}}}
\@writefile{nav}{\headcommand {\beamer@framepages {17}{17}}}
\@writefile{nav}{\headcommand {\slideentry {2}{0}{8}{18/18}{}{0}}}
\@writefile{nav}{\headcommand {\beamer@framepages {18}{18}}}
\@writefile{nav}{\headcommand {\slideentry {2}{0}{9}{19/19}{}{0}}}
\@writefile{nav}{\headcommand {\beamer@framepages {19}{19}}}
\@writefile{nav}{\headcommand {\slideentry {2}{0}{10}{20/20}{}{0}}}
\@writefile{nav}{\headcommand {\beamer@framepages {20}{20}}}
\@writefile{nav}{\headcommand {\slideentry {2}{0}{11}{21/21}{}{0}}}
\@writefile{nav}{\headcommand {\beamer@framepages {21}{21}}}
\@writefile{nav}{\headcommand {\slideentry {2}{0}{12}{22/22}{}{0}}}
\@writefile{nav}{\headcommand {\beamer@framepages {22}{22}}}
\@writefile{nav}{\headcommand {\slideentry {2}{0}{13}{23/23}{}{0}}}
\@writefile{nav}{\headcommand {\beamer@framepages {23}{23}}}
\@writefile{toc}{\beamer@sectionintoc {3}{Maximum likelihood estimator}{24}{0}{3}}
\@writefile{nav}{\headcommand {\beamer@sectionpages {11}{23}}}
\@writefile{nav}{\headcommand {\beamer@subsectionpages {11}{23}}}
\@writefile{nav}{\headcommand {\sectionentry {3}{Maximum likelihood estimator}{24}{Maximum likelihood estimator}{0}}}
\@writefile{nav}{\headcommand {\slideentry {3}{0}{1}{24/24}{}{0}}}
\@writefile{nav}{\headcommand {\beamer@framepages {24}{24}}}
\@writefile{nav}{\headcommand {\slideentry {3}{0}{2}{25/25}{}{0}}}
\@writefile{nav}{\headcommand {\beamer@framepages {25}{25}}}
\@writefile{nav}{\headcommand {\slideentry {3}{0}{3}{26/26}{}{0}}}
\@writefile{nav}{\headcommand {\beamer@framepages {26}{26}}}
\@writefile{nav}{\headcommand {\slideentry {3}{0}{4}{27/27}{}{0}}}
\@writefile{nav}{\headcommand {\beamer@framepages {27}{27}}}
\@writefile{nav}{\headcommand {\slideentry {3}{0}{5}{28/28}{}{0}}}
\@writefile{nav}{\headcommand {\beamer@framepages {28}{28}}}
\@writefile{toc}{\beamer@sectionintoc {4}{Asymptotic properties}{29}{0}{4}}
\@writefile{nav}{\headcommand {\beamer@sectionpages {24}{28}}}
\@writefile{nav}{\headcommand {\beamer@subsectionpages {24}{28}}}
\@writefile{nav}{\headcommand {\sectionentry {4}{Asymptotic properties}{29}{Asymptotic properties}{0}}}
\@writefile{nav}{\headcommand {\slideentry {4}{0}{1}{29/29}{}{0}}}
\@writefile{nav}{\headcommand {\beamer@framepages {29}{29}}}
\@writefile{toc}{\beamer@subsectionintoc {4}{1}{Concepts}{30}{0}{4}}
\@writefile{nav}{\headcommand {\beamer@subsectionpages {29}{29}}}
\@writefile{nav}{\headcommand {\beamer@subsectionentry {0}{4}{1}{30}{Concepts}}}
\@writefile{nav}{\headcommand {\slideentry {4}{1}{1}{30/30}{Concepts}{0}}}
\@writefile{nav}{\headcommand {\beamer@framepages {30}{30}}}
\@writefile{nav}{\headcommand {\slideentry {4}{1}{2}{31/31}{Concepts}{0}}}
\@writefile{nav}{\headcommand {\beamer@framepages {31}{31}}}
\@writefile{toc}{\beamer@subsectionintoc {4}{2}{Properties}{32}{0}{4}}
\@writefile{nav}{\headcommand {\beamer@subsectionpages {30}{31}}}
\@writefile{nav}{\headcommand {\beamer@subsectionentry {0}{4}{2}{32}{Properties}}}
\@writefile{nav}{\headcommand {\slideentry {4}{2}{1}{32/32}{Properties}{0}}}
\@writefile{nav}{\headcommand {\beamer@framepages {32}{32}}}
\@writefile{nav}{\headcommand {\slideentry {4}{2}{2}{33/33}{Properties}{0}}}
\@writefile{nav}{\headcommand {\beamer@framepages {33}{33}}}
\@writefile{toc}{\beamer@subsectionintoc {4}{3}{Confidence intervals}{34}{0}{4}}
\@writefile{nav}{\headcommand {\beamer@subsectionpages {32}{33}}}
\@writefile{nav}{\headcommand {\beamer@subsectionentry {0}{4}{3}{34}{Confidence intervals}}}
\@writefile{nav}{\headcommand {\slideentry {4}{3}{1}{34/34}{Confidence intervals}{0}}}
\@writefile{nav}{\headcommand {\beamer@framepages {34}{34}}}
\@writefile{nav}{\headcommand {\slideentry {4}{3}{2}{35/35}{Confidence intervals}{0}}}
\@writefile{nav}{\headcommand {\beamer@framepages {35}{35}}}
\@writefile{toc}{\beamer@subsectionintoc {4}{4}{Hypothesis testing}{36}{0}{4}}
\@writefile{nav}{\headcommand {\beamer@subsectionpages {34}{35}}}
\@writefile{nav}{\headcommand {\beamer@subsectionentry {0}{4}{4}{36}{Hypothesis testing}}}
\@writefile{nav}{\headcommand {\slideentry {4}{4}{1}{36/36}{Hypothesis testing}{0}}}
\@writefile{nav}{\headcommand {\beamer@framepages {36}{36}}}
\@writefile{toc}{\beamer@subsectionintoc {4}{5}{Log-likelihood ratio test}{37}{0}{4}}
\@writefile{nav}{\headcommand {\beamer@subsectionpages {36}{36}}}
\@writefile{nav}{\headcommand {\beamer@subsectionentry {0}{4}{5}{37}{Log-likelihood ratio test}}}
\@writefile{nav}{\headcommand {\slideentry {4}{5}{1}{37/37}{Log-likelihood ratio test}{0}}}
\@writefile{nav}{\headcommand {\beamer@framepages {37}{37}}}
\bibstyle{apalike}
\bibdata{library}
\@writefile{nav}{\headcommand {\beamer@sectionpages {29}{37}}}
\@writefile{nav}{\headcommand {\beamer@subsectionpages {37}{37}}}
\@writefile{nav}{\headcommand {\sectionentry {5}{\translate  {References}}{38}{\translate  {References}}{0}}}
\@writefile{nav}{\headcommand {\slideentry {5}{0}{0}{38/38}{Log-likelihood ratio test}{0}}}
\@writefile{nav}{\headcommand {\beamer@framepages {38}{38}}}
\@writefile{nav}{\headcommand {\beamer@partpages {1}{38}}}
\@writefile{nav}{\headcommand {\beamer@subsectionpages {37}{38}}}
\@writefile{nav}{\headcommand {\beamer@sectionpages {29}{38}}}
\@writefile{nav}{\headcommand {\beamer@documentpages {38}}}
\@writefile{nav}{\headcommand {\gdef \inserttotalframenumber {37}}}
\gdef \@abspage@last{38}
