\relax 
\providecommand\hyper@newdestlabel[2]{}
\providecommand\HyperFirstAtBeginDocument{\AtBeginDocument}
\HyperFirstAtBeginDocument{\ifx\hyper@anchor\@undefined
\global\let\oldcontentsline\contentsline
\gdef\contentsline#1#2#3#4{\oldcontentsline{#1}{#2}{#3}}
\global\let\oldnewlabel\newlabel
\gdef\newlabel#1#2{\newlabelxx{#1}#2}
\gdef\newlabelxx#1#2#3#4#5#6{\oldnewlabel{#1}{{#2}{#3}}}
\AtEndDocument{\ifx\hyper@anchor\@undefined
\let\contentsline\oldcontentsline
\let\newlabel\oldnewlabel
\fi}
\fi}
\global\let\hyper@last\relax 
\gdef\HyperFirstAtBeginDocument#1{#1}
\providecommand\HyField@AuxAddToFields[1]{}
\providecommand\HyField@AuxAddToCoFields[2]{}
\@writefile{nav}{\headcommand {\slideentry {0}{0}{1}{1/1}{}{0}}}
\@writefile{nav}{\headcommand {\beamer@framepages {1}{1}}}
\@writefile{nav}{\headcommand {\slideentry {0}{0}{2}{2/2}{}{0}}}
\@writefile{nav}{\headcommand {\beamer@framepages {2}{2}}}
\@writefile{toc}{\beamer@sectionintoc {1}{Generalize linear models}{3}{0}{1}}
\@writefile{nav}{\headcommand {\beamer@sectionpages {1}{2}}}
\@writefile{nav}{\headcommand {\beamer@subsectionpages {1}{2}}}
\@writefile{nav}{\headcommand {\sectionentry {1}{Generalize linear models}{3}{Generalize linear models}{0}}}
\@writefile{nav}{\headcommand {\slideentry {1}{0}{1}{3/3}{}{0}}}
\@writefile{nav}{\headcommand {\beamer@framepages {3}{3}}}
\@writefile{nav}{\headcommand {\slideentry {1}{0}{2}{4/4}{}{0}}}
\@writefile{nav}{\headcommand {\beamer@framepages {4}{4}}}
\@writefile{nav}{\headcommand {\slideentry {1}{0}{3}{5/5}{}{0}}}
\@writefile{nav}{\headcommand {\beamer@framepages {5}{5}}}
\@writefile{nav}{\headcommand {\slideentry {1}{0}{4}{6/6}{}{0}}}
\@writefile{nav}{\headcommand {\beamer@framepages {6}{6}}}
\@writefile{toc}{\beamer@sectionintoc {2}{Generalize linear mixed models}{7}{0}{2}}
\@writefile{nav}{\headcommand {\beamer@sectionpages {3}{6}}}
\@writefile{nav}{\headcommand {\beamer@subsectionpages {3}{6}}}
\@writefile{nav}{\headcommand {\sectionentry {2}{Generalize linear mixed models}{7}{Generalize linear mixed models}{0}}}
\@writefile{nav}{\headcommand {\slideentry {2}{0}{1}{7/7}{}{0}}}
\@writefile{nav}{\headcommand {\beamer@framepages {7}{7}}}
\@writefile{nav}{\headcommand {\slideentry {2}{0}{2}{8/8}{}{0}}}
\@writefile{nav}{\headcommand {\beamer@framepages {8}{8}}}
\@writefile{nav}{\headcommand {\slideentry {2}{0}{3}{9/9}{}{0}}}
\@writefile{nav}{\headcommand {\beamer@framepages {9}{9}}}
\@writefile{toc}{\beamer@sectionintoc {3}{Survival Analysis}{10}{0}{3}}
\@writefile{nav}{\headcommand {\beamer@sectionpages {7}{9}}}
\@writefile{nav}{\headcommand {\beamer@subsectionpages {7}{9}}}
\@writefile{nav}{\headcommand {\sectionentry {3}{Survival Analysis}{10}{Survival Analysis}{0}}}
\@writefile{nav}{\headcommand {\slideentry {3}{0}{1}{10/10}{}{0}}}
\@writefile{nav}{\headcommand {\beamer@framepages {10}{10}}}
\@writefile{nav}{\headcommand {\slideentry {3}{0}{2}{11/11}{}{0}}}
\@writefile{nav}{\headcommand {\beamer@framepages {11}{11}}}
\@writefile{nav}{\headcommand {\slideentry {3}{0}{3}{12/12}{}{0}}}
\@writefile{nav}{\headcommand {\beamer@framepages {12}{12}}}
\@writefile{nav}{\headcommand {\slideentry {3}{0}{4}{13/13}{}{0}}}
\@writefile{nav}{\headcommand {\beamer@framepages {13}{13}}}
\@writefile{toc}{\beamer@sectionintoc {4}{Markov models}{14}{0}{4}}
\@writefile{nav}{\headcommand {\beamer@sectionpages {10}{13}}}
\@writefile{nav}{\headcommand {\beamer@subsectionpages {10}{13}}}
\@writefile{nav}{\headcommand {\sectionentry {4}{Markov models}{14}{Markov models}{0}}}
\@writefile{nav}{\headcommand {\slideentry {4}{0}{1}{14/14}{}{0}}}
\@writefile{nav}{\headcommand {\beamer@framepages {14}{14}}}
\@writefile{nav}{\headcommand {\slideentry {4}{0}{2}{15/15}{}{0}}}
\@writefile{nav}{\headcommand {\beamer@framepages {15}{15}}}
\@writefile{toc}{\beamer@sectionintoc {5}{Point processes}{16}{0}{5}}
\@writefile{nav}{\headcommand {\beamer@sectionpages {14}{15}}}
\@writefile{nav}{\headcommand {\beamer@subsectionpages {14}{15}}}
\@writefile{nav}{\headcommand {\sectionentry {5}{Point processes}{16}{Point processes}{0}}}
\@writefile{nav}{\headcommand {\slideentry {5}{0}{1}{16/16}{}{0}}}
\@writefile{nav}{\headcommand {\beamer@framepages {16}{16}}}
\@writefile{snm}{\beamer@slide {eq:point_process_likelihood}{17}}
\newlabel{eq:point_process_likelihood}{{2}{17}{Point processes}{Doc-Start}{}}
\@writefile{snm}{\beamer@slide {eq:logliner_model}{17}}
\newlabel{eq:logliner_model}{{3}{17}{Point processes}{Doc-Start}{}}
\@writefile{nav}{\headcommand {\slideentry {5}{0}{2}{17/17}{}{0}}}
\@writefile{nav}{\headcommand {\beamer@framepages {17}{17}}}
\@writefile{toc}{\beamer@sectionintoc {6}{Text mining}{18}{0}{6}}
\@writefile{nav}{\headcommand {\beamer@sectionpages {16}{17}}}
\@writefile{nav}{\headcommand {\beamer@subsectionpages {16}{17}}}
\@writefile{nav}{\headcommand {\sectionentry {6}{Text mining}{18}{Text mining}{0}}}
\@writefile{nav}{\headcommand {\slideentry {6}{0}{1}{18/18}{}{0}}}
\@writefile{nav}{\headcommand {\beamer@framepages {18}{18}}}
\@writefile{nav}{\headcommand {\slideentry {6}{0}{2}{19/19}{}{0}}}
\@writefile{nav}{\headcommand {\beamer@framepages {19}{19}}}
\@writefile{toc}{\beamer@sectionintoc {7}{Longitudinal data analysis}{20}{0}{7}}
\@writefile{nav}{\headcommand {\beamer@sectionpages {18}{19}}}
\@writefile{nav}{\headcommand {\beamer@subsectionpages {18}{19}}}
\@writefile{nav}{\headcommand {\sectionentry {7}{Longitudinal data analysis}{20}{Longitudinal data analysis}{0}}}
\@writefile{nav}{\headcommand {\slideentry {7}{0}{1}{20/20}{}{0}}}
\@writefile{nav}{\headcommand {\beamer@framepages {20}{20}}}
\@writefile{nav}{\headcommand {\slideentry {7}{0}{2}{21/21}{}{0}}}
\@writefile{nav}{\headcommand {\beamer@framepages {21}{21}}}
\bibstyle{apalike}
\bibdata{library}
\@writefile{nav}{\headcommand {\beamer@sectionpages {20}{21}}}
\@writefile{nav}{\headcommand {\beamer@subsectionpages {20}{21}}}
\@writefile{nav}{\headcommand {\sectionentry {8}{\translate  {References}}{22}{\translate  {References}}{0}}}
\@writefile{nav}{\headcommand {\slideentry {8}{0}{0}{22/22}{}{0}}}
\@writefile{nav}{\headcommand {\beamer@framepages {22}{22}}}
\@writefile{nav}{\headcommand {\beamer@partpages {1}{22}}}
\@writefile{nav}{\headcommand {\beamer@subsectionpages {20}{22}}}
\@writefile{nav}{\headcommand {\beamer@sectionpages {20}{22}}}
\@writefile{nav}{\headcommand {\beamer@documentpages {22}}}
\@writefile{nav}{\headcommand {\gdef \inserttotalframenumber {21}}}
\gdef \@abspage@last{22}
