\relax 
\providecommand\hyper@newdestlabel[2]{}
\providecommand\HyperFirstAtBeginDocument{\AtBeginDocument}
\HyperFirstAtBeginDocument{\ifx\hyper@anchor\@undefined
\global\let\oldcontentsline\contentsline
\gdef\contentsline#1#2#3#4{\oldcontentsline{#1}{#2}{#3}}
\global\let\oldnewlabel\newlabel
\gdef\newlabel#1#2{\newlabelxx{#1}#2}
\gdef\newlabelxx#1#2#3#4#5#6{\oldnewlabel{#1}{{#2}{#3}}}
\AtEndDocument{\ifx\hyper@anchor\@undefined
\let\contentsline\oldcontentsline
\let\newlabel\oldnewlabel
\fi}
\fi}
\global\let\hyper@last\relax 
\gdef\HyperFirstAtBeginDocument#1{#1}
\providecommand\HyField@AuxAddToFields[1]{}
\providecommand\HyField@AuxAddToCoFields[2]{}
\@writefile{nav}{\headcommand {\slideentry {0}{0}{1}{1/1}{}{0}}}
\@writefile{nav}{\headcommand {\beamer@framepages {1}{1}}}
\@writefile{nav}{\headcommand {\slideentry {0}{0}{2}{2/2}{}{0}}}
\@writefile{nav}{\headcommand {\beamer@framepages {2}{2}}}
\@writefile{toc}{\beamer@sectionintoc {1}{Introduction}{3}{0}{1}}
\@writefile{nav}{\headcommand {\beamer@sectionpages {1}{2}}}
\@writefile{nav}{\headcommand {\beamer@subsectionpages {1}{2}}}
\@writefile{nav}{\headcommand {\sectionentry {1}{Introduction}{3}{Introduction}{0}}}
\@writefile{nav}{\headcommand {\slideentry {1}{0}{1}{3/3}{}{0}}}
\@writefile{nav}{\headcommand {\beamer@framepages {3}{3}}}
\@writefile{toc}{\beamer@subsectionintoc {1}{1}{Bayesian thinking}{4}{0}{1}}
\@writefile{nav}{\headcommand {\beamer@subsectionpages {3}{3}}}
\@writefile{nav}{\headcommand {\beamer@subsectionentry {0}{1}{1}{4}{Bayesian thinking}}}
\@writefile{nav}{\headcommand {\slideentry {1}{1}{1}{4/4}{Bayesian thinking}{0}}}
\@writefile{nav}{\headcommand {\beamer@framepages {4}{4}}}
\@writefile{toc}{\beamer@subsectionintoc {1}{2}{Bayes theorem for the posterior}{5}{0}{1}}
\@writefile{nav}{\headcommand {\beamer@subsectionpages {4}{4}}}
\@writefile{nav}{\headcommand {\beamer@subsectionentry {0}{1}{2}{5}{Bayes theorem for the posterior}}}
\@writefile{nav}{\headcommand {\slideentry {1}{2}{1}{5/5}{Bayes theorem for the posterior}{0}}}
\@writefile{nav}{\headcommand {\beamer@framepages {5}{5}}}
\@writefile{nav}{\headcommand {\slideentry {1}{2}{2}{6/6}{Bayes theorem for the posterior}{0}}}
\@writefile{nav}{\headcommand {\beamer@framepages {6}{6}}}
\@writefile{nav}{\headcommand {\slideentry {1}{2}{3}{7/7}{Bayes theorem for the posterior}{0}}}
\@writefile{nav}{\headcommand {\beamer@framepages {7}{7}}}
\@writefile{toc}{\beamer@subsectionintoc {1}{3}{Bayesian analysis}{8}{0}{1}}
\@writefile{nav}{\headcommand {\beamer@subsectionpages {5}{7}}}
\@writefile{nav}{\headcommand {\beamer@subsectionentry {0}{1}{3}{8}{Bayesian analysis}}}
\@writefile{nav}{\headcommand {\slideentry {1}{3}{1}{8/8}{Bayesian analysis}{0}}}
\@writefile{nav}{\headcommand {\beamer@framepages {8}{8}}}
\@writefile{toc}{\beamer@subsectionintoc {1}{4}{Example}{9}{0}{1}}
\@writefile{nav}{\headcommand {\beamer@subsectionpages {8}{8}}}
\@writefile{nav}{\headcommand {\beamer@subsectionentry {0}{1}{4}{9}{Example}}}
\@writefile{nav}{\headcommand {\slideentry {1}{4}{1}{9/9}{Example}{0}}}
\@writefile{nav}{\headcommand {\beamer@framepages {9}{9}}}
\@writefile{toc}{\beamer@subsectionintoc {1}{5}{Bayesian model}{10}{0}{1}}
\@writefile{nav}{\headcommand {\beamer@subsectionpages {9}{9}}}
\@writefile{nav}{\headcommand {\beamer@subsectionentry {0}{1}{5}{10}{Bayesian model}}}
\@writefile{nav}{\headcommand {\slideentry {1}{5}{1}{10/10}{Bayesian model}{0}}}
\@writefile{nav}{\headcommand {\beamer@framepages {10}{10}}}
\@writefile{nav}{\headcommand {\slideentry {1}{5}{2}{11/11}{Bayesian model}{0}}}
\@writefile{nav}{\headcommand {\beamer@framepages {11}{11}}}
\@writefile{nav}{\headcommand {\slideentry {1}{5}{3}{12/12}{Bayesian model}{0}}}
\@writefile{nav}{\headcommand {\beamer@framepages {12}{12}}}
\@writefile{nav}{\headcommand {\slideentry {1}{5}{4}{13/13}{Bayesian model}{0}}}
\@writefile{nav}{\headcommand {\beamer@framepages {13}{13}}}
\@writefile{toc}{\beamer@sectionintoc {2}{Considerations}{14}{0}{2}}
\@writefile{nav}{\headcommand {\beamer@sectionpages {3}{13}}}
\@writefile{nav}{\headcommand {\beamer@subsectionpages {10}{13}}}
\@writefile{nav}{\headcommand {\sectionentry {2}{Considerations}{14}{Considerations}{0}}}
\@writefile{nav}{\headcommand {\slideentry {2}{0}{1}{14/14}{}{0}}}
\@writefile{nav}{\headcommand {\beamer@framepages {14}{14}}}
\@writefile{nav}{\headcommand {\slideentry {2}{0}{2}{15/15}{}{0}}}
\@writefile{nav}{\headcommand {\beamer@framepages {15}{15}}}
\@writefile{nav}{\headcommand {\slideentry {2}{0}{3}{16/16}{}{0}}}
\@writefile{nav}{\headcommand {\beamer@framepages {16}{16}}}
\bibstyle{apalike}
\bibdata{library}
\@writefile{nav}{\headcommand {\beamer@sectionpages {14}{16}}}
\@writefile{nav}{\headcommand {\beamer@subsectionpages {14}{16}}}
\@writefile{nav}{\headcommand {\sectionentry {3}{\translate  {References}}{17}{\translate  {References}}{0}}}
\@writefile{nav}{\headcommand {\slideentry {3}{0}{0}{17/17}{}{0}}}
\@writefile{nav}{\headcommand {\beamer@framepages {17}{17}}}
\@writefile{nav}{\headcommand {\beamer@partpages {1}{17}}}
\@writefile{nav}{\headcommand {\beamer@subsectionpages {14}{17}}}
\@writefile{nav}{\headcommand {\beamer@sectionpages {14}{17}}}
\@writefile{nav}{\headcommand {\beamer@documentpages {17}}}
\@writefile{nav}{\headcommand {\gdef \inserttotalframenumber {16}}}
\gdef \@abspage@last{17}
