\relax 
\providecommand\hyper@newdestlabel[2]{}
\providecommand\HyperFirstAtBeginDocument{\AtBeginDocument}
\HyperFirstAtBeginDocument{\ifx\hyper@anchor\@undefined
\global\let\oldcontentsline\contentsline
\gdef\contentsline#1#2#3#4{\oldcontentsline{#1}{#2}{#3}}
\global\let\oldnewlabel\newlabel
\gdef\newlabel#1#2{\newlabelxx{#1}#2}
\gdef\newlabelxx#1#2#3#4#5#6{\oldnewlabel{#1}{{#2}{#3}}}
\AtEndDocument{\ifx\hyper@anchor\@undefined
\let\contentsline\oldcontentsline
\let\newlabel\oldnewlabel
\fi}
\fi}
\global\let\hyper@last\relax 
\gdef\HyperFirstAtBeginDocument#1{#1}
\providecommand\HyField@AuxAddToFields[1]{}
\providecommand\HyField@AuxAddToCoFields[2]{}
\@writefile{nav}{\headcommand {\slideentry {0}{0}{1}{1/1}{}{0}}}
\@writefile{nav}{\headcommand {\beamer@framepages {1}{1}}}
\@writefile{nav}{\headcommand {\slideentry {0}{0}{2}{2/2}{}{0}}}
\@writefile{nav}{\headcommand {\beamer@framepages {2}{2}}}
\@writefile{toc}{\beamer@sectionintoc {1}{Priors}{3}{0}{1}}
\@writefile{nav}{\headcommand {\beamer@sectionpages {1}{2}}}
\@writefile{nav}{\headcommand {\beamer@subsectionpages {1}{2}}}
\@writefile{nav}{\headcommand {\sectionentry {1}{Priors}{3}{Priors}{0}}}
\@writefile{nav}{\headcommand {\slideentry {1}{0}{1}{3/3}{}{0}}}
\@writefile{nav}{\headcommand {\beamer@framepages {3}{3}}}
\@writefile{toc}{\beamer@subsectionintoc {1}{1}{Desired Properties}{4}{0}{1}}
\@writefile{nav}{\headcommand {\beamer@subsectionpages {3}{3}}}
\@writefile{nav}{\headcommand {\beamer@subsectionentry {0}{1}{1}{4}{Desired Properties}}}
\@writefile{nav}{\headcommand {\slideentry {1}{1}{1}{4/4}{Desired Properties}{0}}}
\@writefile{nav}{\headcommand {\beamer@framepages {4}{4}}}
\@writefile{toc}{\beamer@subsectionintoc {1}{2}{Conjugacy}{5}{0}{1}}
\@writefile{nav}{\headcommand {\beamer@subsectionpages {4}{4}}}
\@writefile{nav}{\headcommand {\beamer@subsectionentry {0}{1}{2}{5}{Conjugacy}}}
\@writefile{nav}{\headcommand {\slideentry {1}{2}{1}{5/5}{Conjugacy}{0}}}
\@writefile{nav}{\headcommand {\beamer@framepages {5}{5}}}
\@writefile{nav}{\headcommand {\slideentry {1}{2}{2}{6/6}{Conjugacy}{0}}}
\@writefile{nav}{\headcommand {\beamer@framepages {6}{6}}}
\@writefile{nav}{\headcommand {\slideentry {1}{2}{3}{7/7}{Conjugacy}{0}}}
\@writefile{nav}{\headcommand {\beamer@framepages {7}{7}}}
\@writefile{nav}{\headcommand {\slideentry {1}{2}{4}{8/8}{Conjugacy}{0}}}
\@writefile{nav}{\headcommand {\beamer@framepages {8}{8}}}
\@writefile{nav}{\headcommand {\slideentry {1}{2}{5}{9/9}{Conjugacy}{0}}}
\@writefile{nav}{\headcommand {\beamer@framepages {9}{9}}}
\@writefile{nav}{\headcommand {\slideentry {1}{2}{6}{10/10}{Conjugacy}{0}}}
\@writefile{nav}{\headcommand {\beamer@framepages {10}{10}}}
\@writefile{nav}{\headcommand {\slideentry {1}{2}{7}{11/11}{Conjugacy}{0}}}
\@writefile{nav}{\headcommand {\beamer@framepages {11}{11}}}
\@writefile{nav}{\headcommand {\slideentry {1}{2}{8}{12/12}{Conjugacy}{0}}}
\@writefile{nav}{\headcommand {\beamer@framepages {12}{12}}}
\@writefile{nav}{\headcommand {\slideentry {1}{2}{9}{13/13}{Conjugacy}{0}}}
\@writefile{nav}{\headcommand {\beamer@framepages {13}{13}}}
\@writefile{toc}{\beamer@subsectionintoc {1}{3}{Mixture of conjugates}{14}{0}{1}}
\@writefile{nav}{\headcommand {\beamer@subsectionpages {5}{13}}}
\@writefile{nav}{\headcommand {\beamer@subsectionentry {0}{1}{3}{14}{Mixture of conjugates}}}
\@writefile{nav}{\headcommand {\slideentry {1}{3}{1}{14/14}{Mixture of conjugates}{0}}}
\@writefile{nav}{\headcommand {\beamer@framepages {14}{14}}}
\@writefile{toc}{\beamer@subsectionintoc {1}{4}{Noninformative prior}{15}{0}{1}}
\@writefile{nav}{\headcommand {\beamer@subsectionpages {14}{14}}}
\@writefile{nav}{\headcommand {\beamer@subsectionentry {0}{1}{4}{15}{Noninformative prior}}}
\@writefile{nav}{\headcommand {\slideentry {1}{4}{1}{15/15}{Noninformative prior}{0}}}
\@writefile{nav}{\headcommand {\beamer@framepages {15}{15}}}
\@writefile{nav}{\headcommand {\slideentry {1}{4}{2}{16/16}{Noninformative prior}{0}}}
\@writefile{nav}{\headcommand {\beamer@framepages {16}{16}}}
\@writefile{nav}{\headcommand {\slideentry {1}{4}{3}{17/17}{Noninformative prior}{0}}}
\@writefile{nav}{\headcommand {\beamer@framepages {17}{17}}}
\@writefile{nav}{\headcommand {\slideentry {1}{4}{4}{18/18}{Noninformative prior}{0}}}
\@writefile{nav}{\headcommand {\beamer@framepages {18}{18}}}
\@writefile{nav}{\headcommand {\slideentry {1}{4}{5}{19/19}{Noninformative prior}{0}}}
\@writefile{nav}{\headcommand {\beamer@framepages {19}{19}}}
\@writefile{nav}{\headcommand {\slideentry {1}{4}{6}{20/20}{Noninformative prior}{0}}}
\@writefile{nav}{\headcommand {\beamer@framepages {20}{20}}}
\@writefile{nav}{\headcommand {\slideentry {1}{4}{7}{21/21}{Noninformative prior}{0}}}
\@writefile{nav}{\headcommand {\beamer@framepages {21}{21}}}
\@writefile{nav}{\headcommand {\slideentry {1}{4}{8}{22/22}{Noninformative prior}{0}}}
\@writefile{nav}{\headcommand {\beamer@framepages {22}{22}}}
\@writefile{nav}{\headcommand {\slideentry {1}{4}{9}{23/23}{Noninformative prior}{0}}}
\@writefile{nav}{\headcommand {\beamer@framepages {23}{23}}}
\@writefile{nav}{\headcommand {\slideentry {1}{4}{10}{24/24}{Noninformative prior}{0}}}
\@writefile{nav}{\headcommand {\beamer@framepages {24}{24}}}
\@writefile{nav}{\headcommand {\slideentry {1}{4}{11}{25/25}{Noninformative prior}{0}}}
\@writefile{nav}{\headcommand {\beamer@framepages {25}{25}}}
\@writefile{nav}{\headcommand {\slideentry {1}{4}{12}{26/26}{Noninformative prior}{0}}}
\@writefile{nav}{\headcommand {\beamer@framepages {26}{26}}}
\@writefile{nav}{\headcommand {\slideentry {1}{4}{13}{27/27}{Noninformative prior}{0}}}
\@writefile{nav}{\headcommand {\beamer@framepages {27}{27}}}
\@writefile{toc}{\beamer@sectionintoc {2}{Model Checking}{28}{0}{2}}
\@writefile{nav}{\headcommand {\beamer@sectionpages {3}{27}}}
\@writefile{nav}{\headcommand {\beamer@subsectionpages {15}{27}}}
\@writefile{nav}{\headcommand {\sectionentry {2}{Model Checking}{28}{Model Checking}{0}}}
\@writefile{nav}{\headcommand {\slideentry {2}{0}{1}{28/28}{}{0}}}
\@writefile{nav}{\headcommand {\beamer@framepages {28}{28}}}
\@writefile{toc}{\beamer@subsectionintoc {2}{1}{Marginal likelihood}{29}{0}{2}}
\@writefile{nav}{\headcommand {\beamer@subsectionpages {28}{28}}}
\@writefile{nav}{\headcommand {\beamer@subsectionentry {0}{2}{1}{29}{Marginal likelihood}}}
\@writefile{nav}{\headcommand {\slideentry {2}{1}{1}{29/29}{Marginal likelihood}{0}}}
\@writefile{nav}{\headcommand {\beamer@framepages {29}{29}}}
\@writefile{nav}{\headcommand {\slideentry {2}{1}{2}{30/30}{Marginal likelihood}{0}}}
\@writefile{nav}{\headcommand {\beamer@framepages {30}{30}}}
\@writefile{nav}{\headcommand {\slideentry {2}{1}{3}{31/31}{Marginal likelihood}{0}}}
\@writefile{nav}{\headcommand {\beamer@framepages {31}{31}}}
\@writefile{nav}{\headcommand {\slideentry {2}{1}{4}{32/32}{Marginal likelihood}{0}}}
\@writefile{nav}{\headcommand {\beamer@framepages {32}{32}}}
\@writefile{nav}{\headcommand {\slideentry {2}{1}{5}{33/33}{Marginal likelihood}{0}}}
\@writefile{nav}{\headcommand {\beamer@framepages {33}{33}}}
\@writefile{nav}{\headcommand {\slideentry {2}{1}{6}{34/34}{Marginal likelihood}{0}}}
\@writefile{nav}{\headcommand {\beamer@framepages {34}{34}}}
\@writefile{toc}{\beamer@subsectionintoc {2}{2}{Penalised fit criteria}{35}{0}{2}}
\@writefile{nav}{\headcommand {\beamer@subsectionpages {29}{34}}}
\@writefile{nav}{\headcommand {\beamer@subsectionentry {0}{2}{2}{35}{Penalised fit criteria}}}
\@writefile{nav}{\headcommand {\slideentry {2}{2}{1}{35/35}{Penalised fit criteria}{0}}}
\@writefile{nav}{\headcommand {\beamer@framepages {35}{35}}}
\@writefile{nav}{\headcommand {\slideentry {2}{2}{2}{36/36}{Penalised fit criteria}{0}}}
\@writefile{nav}{\headcommand {\beamer@framepages {36}{36}}}
\@writefile{toc}{\beamer@subsectionintoc {2}{3}{Predictive methods}{37}{0}{2}}
\@writefile{nav}{\headcommand {\beamer@subsectionpages {35}{36}}}
\@writefile{nav}{\headcommand {\beamer@subsectionentry {0}{2}{3}{37}{Predictive methods}}}
\@writefile{nav}{\headcommand {\slideentry {2}{3}{1}{37/37}{Predictive methods}{0}}}
\@writefile{nav}{\headcommand {\beamer@framepages {37}{37}}}
\@writefile{toc}{\beamer@sectionintoc {3}{Hierarquical model}{38}{0}{3}}
\@writefile{nav}{\headcommand {\beamer@sectionpages {28}{37}}}
\@writefile{nav}{\headcommand {\beamer@subsectionpages {37}{37}}}
\@writefile{nav}{\headcommand {\sectionentry {3}{Hierarquical model}{38}{Hierarquical model}{0}}}
\@writefile{nav}{\headcommand {\slideentry {3}{0}{1}{38/38}{}{0}}}
\@writefile{nav}{\headcommand {\beamer@framepages {38}{38}}}
\@writefile{nav}{\headcommand {\slideentry {3}{0}{2}{39/39}{}{0}}}
\@writefile{nav}{\headcommand {\beamer@framepages {39}{39}}}
\bibstyle{apalike}
\bibdata{library}
\@writefile{nav}{\headcommand {\beamer@sectionpages {38}{39}}}
\@writefile{nav}{\headcommand {\beamer@subsectionpages {38}{39}}}
\@writefile{nav}{\headcommand {\sectionentry {4}{\translate  {References}}{40}{\translate  {References}}{0}}}
\@writefile{nav}{\headcommand {\slideentry {4}{0}{0}{40/40}{}{0}}}
\@writefile{nav}{\headcommand {\beamer@framepages {40}{40}}}
\@writefile{nav}{\headcommand {\beamer@partpages {1}{40}}}
\@writefile{nav}{\headcommand {\beamer@subsectionpages {38}{40}}}
\@writefile{nav}{\headcommand {\beamer@sectionpages {38}{40}}}
\@writefile{nav}{\headcommand {\beamer@documentpages {40}}}
\@writefile{nav}{\headcommand {\gdef \inserttotalframenumber {39}}}
\gdef \@abspage@last{40}
