age,time
177.81053657696327,20.78831313602355
195.20743891875193,5.157479970876626
167.33328353412773,49.445725075394265
178.04111925127881,9.904663041485154
203.02408769738867,0.07705144940575732
163.35777796684408,80.41054648907986
186.8862725554076,7.519265524213915
170.36768859888343,99.26180880969429
181.6878282217242,5.602735167658112
189.52755934279944,7.496484258159109
